<svg width="28" height="20" viewBox="0 0 28 20" fill="none" xmlns="http://www.w3.org/2000/svg">
<rect width="28" height="2" rx="1" fill="#363036"/>
<rect y="9" width="28" height="2" rx="1" fill="#363036"/>
<rect y="18" width="28" height="2" rx="1" fill="#363036"/>
</svg>
