<svg width="30" height="30" viewBox="0 0 30 30" fill="none" xmlns="http://www.w3.org/2000/svg">
<path d="M10.3478 15.76L15.3235 10.5426L20.3219 15.7836L21.858 14.1729L16.8597 8.93194L21.8687 3.67968L20.3326 2.06897L15.3235 7.32123L10.337 2.09263L8.80091 3.70334L13.7874 8.93194L8.81165 14.1493L10.3478 15.76Z" fill="#41559B"/>
<path fill-rule="evenodd" clip-rule="evenodd" d="M25.8621 22.2363C25.8621 25.3814 20.999 27.931 15 27.931C9.00105 27.931 4.13794 25.3814 4.13794 22.2363C4.13794 19.0912 9.00105 16.5416 15 16.5416C20.999 16.5416 25.8621 19.0912 25.8621 22.2363ZM23.6897 22.2363C23.6897 22.4813 23.4438 23.3162 21.7091 24.2257C20.1043 25.067 17.7354 25.6532 15 25.6532C12.2647 25.6532 9.89567 25.067 8.2909 24.2257C6.55619 23.3162 6.31035 22.4813 6.31035 22.2363C6.31035 21.9914 6.55619 21.1564 8.2909 20.247C9.89567 19.4056 12.2647 18.8195 15 18.8195C17.7354 18.8195 20.1043 19.4056 21.7091 20.247C23.4438 21.1564 23.6897 21.9914 23.6897 22.2363Z" fill="#41559B"/>
</svg>
