<svg width="30" height="30" viewBox="0 0 30 30" fill="none" xmlns="http://www.w3.org/2000/svg">
<path d="M25.5938 11.7672C25.0771 11.7672 24.6355 11.4165 24.4767 10.9376C23.1842 7.04186 19.4299 4.22414 14.9999 4.22414C10.5699 4.22414 6.81565 7.04186 5.52319 10.9376C5.36432 11.4165 4.9227 11.7672 4.40601 11.7672H4.16211C3.4697 11.7672 2.94499 11.1524 3.14723 10.5074C4.67788 5.62564 9.40532 2.06897 14.9999 2.06897C20.5946 2.06897 25.322 5.62564 26.8527 10.5074C27.0549 11.1524 26.5302 11.7672 25.8378 11.7672H25.5938Z" fill="#41559B"/>
<path d="M8.8992 18.0159L14.6359 12.0422C14.9879 11.6756 15.5587 11.6756 15.9107 12.0422L21.6474 18.0159C21.9995 18.3825 21.9995 18.9768 21.6474 19.3434C21.2954 19.71 20.7247 19.71 20.3726 19.3434L16.1748 14.9721V27.931H14.8977C14.8441 27.931 14.7745 27.9299 14.6987 27.9287C14.5251 27.9259 14.3191 27.9226 14.1981 27.931L14.3719 14.9721L10.174 19.3434C9.822 19.71 9.25124 19.71 8.8992 19.3434C8.54717 18.9768 8.54717 18.3825 8.8992 18.0159Z" fill="#41559B"/>
</svg>
