<svg width="30" height="30" viewBox="0 0 30 30" fill="none" xmlns="http://www.w3.org/2000/svg">
<path fill-rule="evenodd" clip-rule="evenodd" d="M14.0952 2.13309C14.4281 2.09226 14.7591 2.07334 15.0861 2.06935C19.975 2.02354 24.0039 6.0827 24.0039 11.0023C24.0039 13.6961 22.7653 16.0414 21.1244 17.6925C19.8977 18.8368 19.1427 20.3087 19.1427 21.7686V22.9517H19.0495V26.9352H16.7904C16.4455 27.5297 15.8163 27.931 15.0861 27.931C14.3558 27.931 13.7266 27.5297 13.3818 26.9352H11.1226V20.96C10.9059 19.7841 10.2937 18.7188 9.38861 17.9425C7.17601 16.0523 5.84825 13.1175 6.29216 9.88094C6.84803 5.85963 10.0465 2.59617 14.0655 2.13309C14.0721 2.13176 14.0787 2.1322 14.0853 2.13265C14.0886 2.13287 14.0919 2.13309 14.0952 2.13309ZM19.6759 5.77319C18.4528 4.6883 16.8458 4.03638 15.0861 4.06109L15.0841 4.06209C14.8255 4.06864 14.5674 4.08992 14.3112 4.12582C12.8875 4.28435 11.584 4.90103 10.5481 5.825L15.0861 10.363L19.6759 5.77319ZM20.7159 6.92763L16.1833 11.4602L20.3233 15.6001C21.3372 14.3456 22.0221 12.7626 22.0221 11.0023C22.0221 9.48447 21.5378 8.07472 20.7159 6.92763ZM19.2938 16.7652L15.0861 12.5575L10.9692 16.6744C12.1641 17.8352 12.8076 19.3744 13.0102 20.961H17.3443C17.5548 19.3904 18.2378 17.9278 19.2938 16.7652ZM9.8585 15.5906L13.9889 11.4602L9.50824 6.97959C8.85029 7.89306 8.40244 8.9699 8.24218 10.1309C7.95276 12.2398 8.62194 14.1485 9.8585 15.5906ZM17.0678 24.9444V22.9527H13.1044V24.9444H17.0678Z" fill="#41559B"/>
</svg>
