<svg width="29" height="29" viewBox="0 0 29 29" fill="none" xmlns="http://www.w3.org/2000/svg">
<path fill-rule="evenodd" clip-rule="evenodd" d="M3 5.19048C3 3.98071 3.98071 3 5.19048 3H23.8095C25.0193 3 26 3.98071 26 5.19048V23.8095C26 25.0193 25.0193 26 23.8095 26H5.19048C3.98071 26 3 25.0193 3 23.8095V5.19048ZM5.19048 5.19048H23.8095V23.8095H16.8V17.95H19.1V13.2518C19.77 13.015 20.25 12.3761 20.25 11.625C20.25 10.6723 19.4777 9.9 18.525 9.9C17.5723 9.9 16.8 10.6723 16.8 11.625C16.8 12.3761 17.28 13.015 17.95 13.2518V16.8L11.05 16.8V13.2518C11.72 13.015 12.2 12.3761 12.2 11.625C12.2 10.6723 11.4277 9.9 10.475 9.9C9.52231 9.9 8.75 10.6723 8.75 11.625C8.75 12.3761 9.23001 13.015 9.9 13.2518V17.95H15.65V23.8095H5.19048L5.19048 5.19048Z" fill="#41559B"/>
</svg>
