<svg width="25" height="30" viewBox="0 0 25 30" fill="none" xmlns="http://www.w3.org/2000/svg">
<path fill-rule="evenodd" clip-rule="evenodd" d="M4.44444 14.717C4.44444 14.9684 4.60532 15.1815 4.82792 15.2553C4.8821 15.2733 4.93994 15.283 5 15.283H12.2222C12.3234 15.283 12.4183 15.2555 12.5 15.2073C12.6661 15.1094 12.7778 14.9265 12.7778 14.717V7.35849C12.7778 7.04588 12.529 6.79245 12.2222 6.79245H5C4.69318 6.79245 4.44444 7.04588 4.44444 7.35849V14.717ZM6.38889 13.3019V8.77358H10.8333V13.3019H6.38889Z" fill="#41559B"/>
<path fill-rule="evenodd" clip-rule="evenodd" d="M14.4444 13.0189C14.4444 12.8094 14.5562 12.6264 14.7222 12.5286C14.8039 12.4804 14.8988 12.4528 15 12.4528H20C20.3068 12.4528 20.5556 12.7063 20.5556 13.0189V18.1132C20.5556 18.4258 20.3068 18.6792 20 18.6792H15C14.8988 18.6792 14.8039 18.6517 14.7222 18.6035C14.5562 18.5056 14.4444 18.3227 14.4444 18.1132V13.0189ZM16.3889 16.6981V14.434H18.6111V16.6981H16.3889Z" fill="#41559B"/>
<path fill-rule="evenodd" clip-rule="evenodd" d="M12.7778 22.6415C12.7778 22.9541 12.529 23.2075 12.2222 23.2075H6.66667C6.35984 23.2075 6.11111 22.9541 6.11111 22.6415V16.9811C6.11111 16.6685 6.35984 16.4151 6.66667 16.4151H12.2222C12.3234 16.4151 12.4183 16.4427 12.5 16.4908C12.6661 16.5887 12.7778 16.7716 12.7778 16.9811V22.6415ZM8.05556 21.2264V18.3962H10.8333V21.2264H8.05556Z" fill="#41559B"/>
<path fill-rule="evenodd" clip-rule="evenodd" d="M0 2.83019C0 1.26712 1.24365 0 2.77778 0H22.2222C23.7563 0 25 1.26712 25 2.83019V27.1698C25 28.7329 23.7563 30 22.2222 30H2.77778C1.24365 30 0 28.7329 0 27.1698V2.83019ZM2.77778 1.98113H22.2222C22.6825 1.98113 23.0556 2.36127 23.0556 2.83019V27.1698C23.0556 27.6387 22.6825 28.0189 22.2222 28.0189H2.77778C2.31754 28.0189 1.94444 27.6387 1.94444 27.1698V2.83019C1.94444 2.36127 2.31754 1.98113 2.77778 1.98113Z" fill="#41559B"/>
</svg>
