<svg width="26" height="30" viewBox="0 0 26 30" fill="none" xmlns="http://www.w3.org/2000/svg">
<path fill-rule="evenodd" clip-rule="evenodd" d="M4.93386 8.09212C4.93386 7.5471 5.37452 7.10527 5.91811 7.10527H20.6819C21.2255 7.10527 21.6661 7.5471 21.6661 8.09212V24.8684C21.6661 25.4134 21.2255 25.8553 20.6819 25.8553H5.91811C5.37452 25.8553 4.93386 25.4134 4.93386 24.8684V8.09212ZM6.41023 24.375V8.58554H20.1898V24.375H6.41023Z" fill="#41559B"/>
<path d="M6.90236 4.14475C6.90236 4.68977 6.46169 5.13159 5.91811 5.13159C5.37452 5.13159 4.93386 4.68977 4.93386 4.14475C4.93386 3.59973 5.37452 3.15791 5.91811 3.15791C6.46169 3.15791 6.90236 3.59973 6.90236 4.14475Z" fill="#41559B"/>
<path d="M8.87086 5.13159C9.41445 5.13159 9.85511 4.68977 9.85511 4.14475C9.85511 3.59973 9.41445 3.15791 8.87086 3.15791C8.32728 3.15791 7.88661 3.59973 7.88661 4.14475C7.88661 4.68977 8.32728 5.13159 8.87086 5.13159Z" fill="#41559B"/>
<path d="M12.8079 4.14475C12.8079 4.68977 12.3672 5.13159 11.8236 5.13159C11.28 5.13159 10.8394 4.68977 10.8394 4.14475C10.8394 3.59973 11.28 3.15791 11.8236 3.15791C12.3672 3.15791 12.8079 3.59973 12.8079 4.14475Z" fill="#41559B"/>
<path d="M14.7764 5.13159L21.6661 5.13159V3.65133L14.7764 3.65133V5.13159Z" fill="#41559B"/>
<path fill-rule="evenodd" clip-rule="evenodd" d="M0.996847 3.15791C0.996847 1.52285 2.31884 0.19738 3.9496 0.19738H22.6504C24.2812 0.19738 25.6031 1.52285 25.6031 3.15791V26.8421C25.6031 28.4772 24.2812 29.8026 22.6504 29.8026H3.9496C2.31884 29.8026 0.996847 28.4772 0.996847 26.8421V3.15791ZM3.9496 1.67764H22.6504C23.4658 1.67764 24.1268 2.34038 24.1268 3.15791V26.8421C24.1268 27.6596 23.4658 28.3224 22.6504 28.3224H3.9496C3.13422 28.3224 2.47323 27.6596 2.47323 26.8421V3.15791C2.47323 2.34038 3.13422 1.67764 3.9496 1.67764Z" fill="#41559B"/>
<path fill-rule="evenodd" clip-rule="evenodd" d="M21.8628 5.32895L14.5793 5.32895V3.45395L21.8628 3.45395V5.32895ZM22.6502 1.875H3.94941C3.24275 1.875 2.66988 2.44937 2.66988 3.1579V26.8421C2.66988 27.5506 3.24275 28.125 3.94941 28.125H22.6502C23.3569 28.125 23.9297 27.5506 23.9297 26.8421V3.15789C23.9297 2.44937 23.3569 1.875 22.6502 1.875ZM0.799805 3.1579C0.799805 1.41384 2.20993 0 3.94941 0H22.6502C24.3897 0 25.7998 1.41384 25.7998 3.15789V26.8421C25.7998 28.5862 24.3897 30 22.6502 30H3.94941C2.20993 30 0.799805 28.5862 0.799805 26.8421V3.1579ZM6.41023 24.375V8.58554H20.1898V24.375H6.41023ZM19.9927 24.1776V8.78289H6.60689V24.1776H19.9927ZM4.73681 8.0921C4.73681 7.43808 5.26561 6.90789 5.91791 6.90789H20.6817C21.334 6.90789 21.8628 7.43808 21.8628 8.0921V24.8684C21.8628 25.5224 21.334 26.0526 20.6817 26.0526H5.91791C5.26561 26.0526 4.73681 25.5224 4.73681 24.8684V8.0921ZM7.09902 4.14474C7.09902 4.79876 6.57022 5.32895 5.91791 5.32895C5.26561 5.32895 4.73681 4.79876 4.73681 4.14474C4.73681 3.49072 5.26561 2.96053 5.91791 2.96053C6.57022 2.96053 7.09902 3.49072 7.09902 4.14474ZM10.0518 4.14474C10.0518 4.79876 9.52298 5.32895 8.87067 5.32895C8.21837 5.32895 7.68957 4.79876 7.68957 4.14474C7.68957 3.49072 8.21837 2.96053 8.87067 2.96053C9.52298 2.96053 10.0518 3.49072 10.0518 4.14474ZM13.0045 4.14474C13.0045 4.79876 12.4757 5.32895 11.8234 5.32895C11.1711 5.32895 10.6423 4.79876 10.6423 4.14474C10.6423 3.49072 11.1711 2.96053 11.8234 2.96053C12.4757 2.96053 13.0045 3.49072 13.0045 4.14474ZM3.9496 0.19738C2.31884 0.19738 0.996847 1.52285 0.996847 3.15791V26.8421C0.996847 28.4772 2.31884 29.8026 3.9496 29.8026H22.6504C24.2812 29.8026 25.6031 28.4772 25.6031 26.8421V3.15791C25.6031 1.52285 24.2812 0.19738 22.6504 0.19738H3.9496ZM22.6504 1.67764H3.9496C3.13422 1.67764 2.47323 2.34038 2.47323 3.15791V26.8421C2.47323 27.6596 3.13422 28.3224 3.9496 28.3224H22.6504C23.4658 28.3224 24.1268 27.6596 24.1268 26.8421V3.15791C24.1268 2.34038 23.4658 1.67764 22.6504 1.67764ZM5.91811 5.13159C6.46169 5.13159 6.90236 4.68977 6.90236 4.14475C6.90236 3.59973 6.46169 3.15791 5.91811 3.15791C5.37452 3.15791 4.93386 3.59973 4.93386 4.14475C4.93386 4.68977 5.37452 5.13159 5.91811 5.13159ZM5.91811 7.10527C5.37452 7.10527 4.93386 7.5471 4.93386 8.09212V24.8684C4.93386 25.4134 5.37452 25.8553 5.91811 25.8553H20.6819C21.2255 25.8553 21.6661 25.4134 21.6661 24.8684V8.09212C21.6661 7.5471 21.2255 7.10527 20.6819 7.10527H5.91811ZM8.87086 5.13159C9.41445 5.13159 9.85511 4.68977 9.85511 4.14475C9.85511 3.59973 9.41445 3.15791 8.87086 3.15791C8.32728 3.15791 7.88661 3.59973 7.88661 4.14475C7.88661 4.68977 8.32728 5.13159 8.87086 5.13159ZM11.8236 5.13159C12.3672 5.13159 12.8079 4.68977 12.8079 4.14475C12.8079 3.59973 12.3672 3.15791 11.8236 3.15791C11.28 3.15791 10.8394 3.59973 10.8394 4.14475C10.8394 4.68977 11.28 5.13159 11.8236 5.13159ZM21.6661 5.13159V3.65133L14.7764 3.65133V5.13159L21.6661 5.13159Z" fill="#41559B"/>
</svg>
