<svg width="24" height="24" viewBox="0 0 24 24" fill="none" xmlns="http://www.w3.org/2000/svg">
<path fill-rule="evenodd" clip-rule="evenodd" d="M0.103394 3.67242C0.103394 1.70133 1.70127 0.103455 3.67236 0.103455H20.3275C22.2986 0.103455 23.8965 1.70133 23.8965 3.67242V20.3276C23.8965 22.2987 22.2986 23.8966 20.3275 23.8966H3.67236C1.70127 23.8966 0.103394 22.2987 0.103394 20.3276V3.67242ZM19.7327 2.48276H20.3275C20.9846 2.48276 21.5172 3.01539 21.5172 3.67242V20.3276C21.5172 20.9846 20.9846 21.5172 20.3275 21.5172H3.67236C3.01533 21.5172 2.4827 20.9846 2.4827 20.3276V3.67242C2.4827 3.01539 3.01533 2.48276 3.67236 2.48276H4.26719V7.24138H5.45684L5.45684 2.48276H7.83615V7.24138H9.02581V2.48276H11.4051V7.24138H12.5948V2.48276H14.9741V7.24138H16.1637V2.48276H18.543V7.24138H19.7327V2.48276Z" fill="#41559B"/>
</svg>
