<svg width="30" height="30" viewBox="0 0 30 30" fill="none" xmlns="http://www.w3.org/2000/svg">
<path fill-rule="evenodd" clip-rule="evenodd" d="M19.6551 20.1724C19.6551 22.7434 17.5709 24.8276 15 24.8276C12.429 24.8276 10.3448 22.7434 10.3448 20.1724C10.3448 17.6014 12.429 15.5172 15 15.5172C17.5709 15.5172 19.6551 17.6014 19.6551 20.1724ZM17.5862 20.1724C17.5862 21.6007 16.4283 22.7586 15 22.7586C13.5716 22.7586 12.4137 21.6007 12.4137 20.1724C12.4137 18.7441 13.5716 17.5862 15 17.5862C16.4283 17.5862 17.5862 18.7441 17.5862 20.1724Z" fill="#41559B"/>
<path fill-rule="evenodd" clip-rule="evenodd" d="M7.24133 9.31035C7.24133 5.31105 10.4834 2.06897 14.4827 2.06897H15.5172C19.5165 2.06897 22.7586 5.31105 22.7586 9.31035V20.6897C22.7586 24.689 19.5165 27.931 15.5172 27.931H14.4827C10.4834 27.931 7.24133 24.689 7.24133 20.6897V9.31035ZM14.4827 4.13794H15.5172C18.3738 4.13794 20.6896 6.4537 20.6896 9.31035V20.6897C20.6896 23.5463 18.3738 25.8621 15.5172 25.8621H14.4827C11.6261 25.8621 9.3103 23.5463 9.3103 20.6897V9.31035C9.3103 6.4537 11.6261 4.13794 14.4827 4.13794Z" fill="#41559B"/>
</svg>
