<svg width="28" height="25" viewBox="0 0 28 25" fill="none" xmlns="http://www.w3.org/2000/svg">
<path fill-rule="evenodd" clip-rule="evenodd" d="M0 2.5C0 1.11929 1.13964 0 2.54545 0H25.4545C26.8604 0 28 1.11929 28 2.5V17.5C28 18.8807 26.8604 20 25.4545 20H15.0304L16.6646 21.9825C16.7374 22.0709 16.8193 22.1517 16.9089 22.2237L18.5241 23.5217C19.1412 24.0177 18.7842 25 17.9868 25H10.0469C9.24573 25 8.89089 24.0099 9.51539 23.5171L11.142 22.2333C11.2413 22.1549 11.3314 22.0658 11.4104 21.9677L12.994 20H2.54545C1.13964 20 0 18.8807 0 17.5V2.5ZM2.54545 1.66667H25.4545C25.9232 1.66667 26.303 2.03976 26.303 2.5V17.5C26.303 17.9602 25.9232 18.3333 25.4545 18.3333H2.54545C2.07685 18.3333 1.69697 17.9602 1.69697 17.5V2.5C1.69697 2.03976 2.07685 1.66667 2.54545 1.66667Z" fill="#41559B"/>
</svg>
