<svg width="18" height="18" viewBox="0 0 18 18" fill="none" xmlns="http://www.w3.org/2000/svg">
<path d="M4.13517 1.96875L4.15077 1.96875L4.16636 1.98437C4.79009 2.88021 5.4762 3.91667 6.22468 5.09375C6.23508 5.17708 6.20389 5.28646 6.13112 5.42187C6.03756 5.60937 5.77767 6.07292 5.35145 6.8125L5.03959 7.35937L5.39823 7.875C5.88683 8.57292 6.61971 9.41146 7.59689 10.3906C8.57407 11.3698 9.40572 12.099 10.0918 12.5781L10.6064 12.9531L11.1678 12.6406C11.9058 12.2135 12.3684 11.9531 12.5556 11.8594C12.6283 11.8177 12.6907 11.7891 12.7427 11.7734C12.7947 11.7578 12.8363 11.75 12.8674 11.75L12.883 11.75C13.7043 12.2708 14.7438 12.9635 16.0017 13.8281C16.0121 13.901 15.9861 13.9792 15.9237 14.0625C15.6119 14.5 15.2636 14.9141 14.879 15.3047C14.4943 15.6953 14.2137 15.9271 14.0369 16C13.1013 15.9479 11.9968 15.5234 10.7234 14.7266C9.4499 13.9297 8.08548 12.8021 6.63011 11.3437C5.91281 10.6146 5.27089 9.90625 4.70433 9.21875C4.13777 8.53125 3.65698 7.875 3.26195 7.25C2.86692 6.625 2.56285 6.03125 2.34974 5.46875C2.13663 4.90625 2.01968 4.39583 1.99889 3.9375C2.06126 3.76042 2.28737 3.47917 2.6772 3.09375C3.06703 2.70833 3.48026 2.35937 3.91687 2.04687C3.98964 2.00521 4.06241 1.97917 4.13517 1.96875ZM4.13517 1C4.0728 1 4.01563 1.00521 3.96365 1.01562L3.80771 1.04687L3.65178 1.09375L3.49585 1.16406L3.33992 1.25C3.27754 1.29167 3.18918 1.35677 3.07483 1.44531C2.96048 1.53385 2.77076 1.6901 2.50567 1.91406C2.24059 2.13802 2.00409 2.35677 1.79618 2.57031C1.58827 2.78385 1.40115 3.01562 1.23482 3.26562C1.06849 3.51562 0.990521 3.73438 1.00092 3.92187C1.02171 4.56771 1.18284 5.26042 1.48431 6C1.78578 6.73958 2.18861 7.47135 2.69279 8.19531C3.19698 8.91927 3.70896 9.58854 4.22873 10.2031C4.74851 10.8177 5.31507 11.4323 5.92841 12.0469C6.54175 12.6615 7.15508 13.2318 7.76842 13.7578C8.38176 14.2839 9.04967 14.7995 9.77216 15.3047C10.4947 15.8099 11.2275 16.2135 11.9708 16.5156C12.7141 16.8177 13.4132 16.9792 14.0681 17L14.0837 17C14.2604 17 14.4735 16.9167 14.723 16.75C14.9725 16.5833 15.2038 16.3932 15.4169 16.1797C15.6301 15.9661 15.8484 15.7318 16.0719 15.4766C16.2954 15.2214 16.4539 15.0312 16.5475 14.9062L16.7346 14.6562C16.9425 14.3229 17.0283 14.0078 16.9919 13.7109C16.9555 13.4141 16.8281 13.1927 16.6098 13.0469C16.5786 13.0156 16.4799 12.9453 16.3136 12.8359C16.1472 12.7266 15.9549 12.599 15.7366 12.4531C15.5183 12.3073 15.2818 12.1484 15.0271 11.9766C14.7724 11.8047 14.5307 11.6458 14.302 11.5C14.0733 11.3542 13.8732 11.224 13.7017 11.1094C13.5302 10.9948 13.4184 10.9219 13.3664 10.8906C13.3041 10.849 13.2287 10.8151 13.1403 10.7891C13.052 10.763 12.961 10.75 12.8674 10.75C12.8051 10.75 12.7427 10.7552 12.6803 10.7656C12.6179 10.776 12.553 10.7917 12.4854 10.8125C12.4178 10.8333 12.3503 10.8568 12.2827 10.8828C12.2151 10.9089 12.1501 10.9375 12.0878 10.9687C11.8903 11.0729 11.4173 11.3385 10.6688 11.7656C10.0346 11.3177 9.24459 10.6198 8.29859 9.67187C7.75802 9.13021 7.31881 8.66146 6.98096 8.26562C6.6431 7.86979 6.39101 7.55208 6.22468 7.3125C6.6509 6.55208 6.91598 6.07812 7.01994 5.89062C7.29022 5.36979 7.31621 4.9375 7.09791 4.59375C6.99395 4.42708 6.63011 3.8776 6.00637 2.94531C5.38264 2.01302 5.02919 1.48958 4.94603 1.375C4.7693 1.125 4.49902 1 4.13517 1Z" fill="#ffffff" stroke="#ffffff" stroke-width="0.3"/>
</svg>
