<svg width="25" height="26" viewBox="0 0 25 26" fill="none" xmlns="http://www.w3.org/2000/svg">
<path fill-rule="evenodd" clip-rule="evenodd" d="M21.7828 4.42311L22.1992 4.91251L24.931 2.06693V8.99754H18.2776L20.7121 6.46159L20.3591 6.02892C18.4708 3.7145 15.6731 2.22414 12.5172 2.22414C6.99919 2.22414 2.49496 6.71655 2.18894 12.3842H0.117215C0.425686 5.52784 5.85863 0.0689697 12.5172 0.0689697C16.2109 0.0689697 19.512 1.75444 21.7828 4.42311ZM6.75678 17.0025L4.32227 19.5384L4.67528 19.9711C6.56359 22.2855 9.36124 23.7759 12.5172 23.7759C18.0352 23.7759 22.5394 19.2835 22.8454 13.6158H24.9172C24.6087 20.4722 19.1757 25.931 12.5172 25.931C8.82843 25.931 5.52229 24.2455 3.25159 21.5769L2.83515 21.0875L0.103394 23.9331V17.0025H6.75678ZM12.5172 11.3562C13.3896 11.3562 14.0952 12.0912 14.0952 13C14.0952 13.9088 13.3896 14.6438 12.5172 14.6438C11.6448 14.6438 10.9391 13.9088 10.9391 13C10.9391 12.0912 11.6448 11.3562 12.5172 11.3562Z" fill="#41559B"/>
</svg>
