<svg width="23" height="25" viewBox="0 0 23 25" fill="none" xmlns="http://www.w3.org/2000/svg">
<path fill-rule="evenodd" clip-rule="evenodd" d="M18.8105 20.886L21.2616 23.2929C21.6593 23.6834 22.304 23.6834 22.7017 23.2929C23.0994 22.9024 23.0994 22.2692 22.7017 21.8787L19.6211 18.8535C19.8343 18.0295 19.945 17.1352 19.945 16.1781C19.945 10.3685 13.3748 2.52558 11.3604 0.257004C11.2887 0.176403 11.1997 0.111699 11.0996 0.0673348C10.9994 0.022971 10.8905 0 10.7802 0C10.67 0 10.5611 0.022971 10.4609 0.0673348C10.3608 0.111699 10.2718 0.176403 10.2001 0.257004C9.35026 1.21378 7.69018 3.16208 6.05445 5.5312L1.73841 1.29289C1.34073 0.902369 0.695951 0.902369 0.298265 1.29289C-0.0994216 1.68342 -0.0994216 2.31658 0.298265 2.70711L4.92461 7.25013C3.12796 10.1339 1.61487 13.3901 1.61487 16.1781C1.61487 21.5919 5.15551 25 10.7799 25C14.5226 25 17.3425 23.4909 18.8105 20.886ZM17.2906 19.3934C16.9746 20.1082 16.5498 20.706 16.0459 21.191C14.9113 22.2831 13.1706 23 10.7799 23C8.38925 23 6.64855 22.2831 5.51393 21.191C4.38376 20.1031 3.65155 18.4478 3.65155 16.1781C3.65155 14.0769 4.78543 11.3921 6.40835 8.70715L17.2906 19.3934ZM7.52205 6.97237C8.67946 5.26492 9.87476 3.75795 10.7801 2.67883C11.8549 3.96011 13.3384 5.84436 14.6819 7.95117C16.5515 10.8827 17.9083 13.8795 17.9083 16.1781C17.9083 16.5073 17.8929 16.8237 17.8631 17.1272L7.52205 6.97237Z" fill="#41559B"/>
</svg>
